%YAML 1.1
%TAG !u! tag:unity3d.com,2011:
--- !u!114 &11400000
MonoBehaviour:
  m_ObjectHideFlags: 0
  m_CorrespondingSourceObject: {fileID: 0}
  m_PrefabInstance: {fileID: 0}
  m_PrefabAsset: {fileID: 0}
  m_GameObject: {fileID: 0}
  m_Enabled: 1
  m_EditorHideFlags: 0
  m_Script: {fileID: 11500000, guid: d1fb8931c97eda147b7b2a3392ee8a88, type: 3}
  m_Name: Pistola de mano
  m_EditorClassIdentifier: 
  gunName: Pistola
  maxAmmoCount: 25
  balasActual: 25
  reloadTime: 2
  damage: 25
  fireRate: 0.2
  range: 50
  recoil: {x: 5, y: 2.5}
  Offset: {x: 0.85302734, y: 2.4089966, z: 2.9720001}
  automatic: 1
